<?xml version="1.0" encoding="UTF-8"?>
<svg width="150px" height="150px" viewBox="0 0 150 150" version="1.1" xmlns="http://www.w3.org/2000/svg" xmlns:xlink="http://www.w3.org/1999/xlink">
    <!-- Generator: Sketch 51.3 (57544) - http://www.bohemiancoding.com/sketch -->
    <title>navigation/icon/multi@1x</title>
    <desc>Created with Sketch.</desc>
    <defs>
        <linearGradient x1="50%" y1="0%" x2="50%" y2="260.995953%" id="linearGradient-1">
            <stop stop-color="#C7C7C9" offset="0%"></stop>
            <stop stop-color="#69696E" offset="100%"></stop>
        </linearGradient>
        <linearGradient x1="50%" y1="0%" x2="50%" y2="100%" id="linearGradient-2">
            <stop stop-color="#C7C7C9" offset="0%"></stop>
            <stop stop-color="#69696E" offset="100%"></stop>
        </linearGradient>
        <linearGradient x1="50%" y1="0%" x2="50%" y2="3776.64824%" id="linearGradient-3">
            <stop stop-color="#C7C7C9" offset="0%"></stop>
            <stop stop-color="#69696E" offset="100%"></stop>
        </linearGradient>
    </defs>
    <g id="navigation/icon/multi" stroke="none" stroke-width="1" fill="none" fill-rule="evenodd">
        <rect id="Rectangle-7" fill="#D8D8D8" fill-rule="nonzero" opacity="0" x="0" y="0" width="150" height="150"></rect>
        <g id="IQOS-3-Multi-(10X)-Group" transform="translate(65.833333, 33.333333)">
            <g id="Group-10" transform="translate(0.000000, 0.623584)">
                <path d="M19.4634703,14.8356872 L19.4634703,24.330727 L15.3196347,26.2987433 C15.0182648,26.0303774 14.6792237,25.8131289 14.2899543,25.6725563 C13.4988584,25.3786318 12.6449772,25.4169697 11.8915525,25.7747909 L6.19063927,28.4712288 C5.02283105,29.0335192 4.34474886,30.2475553 4.38242009,31.48715 L0.627853881,33.2762557 L0.627853881,14.8356872 C0.627853881,9.45559058 1.33105023,4.89337091 1.33105023,4.85503293 C1.36872146,4.63778438 1.51940639,4.48443246 1.70776256,4.42053582 L2.05936073,4.39497717 L18.2328767,4.39497717 C18.4840183,4.39497717 18.7100457,4.58666707 18.7477169,4.85503293 C18.760274,4.89337091 19.4634703,9.45559058 19.4634703,14.8356872 Z" id="Stroke-4" stroke="url(#linearGradient-1)" stroke-width="2.08333333"></path>
                <path d="M19.4634703,27.0019863 L19.4634703,73.5802732 C19.4634703,85.5518522 18.7853881,87.7568152 18.760274,87.8440172 L18.3458904,89.6628002 C18.3333333,89.7375448 18.2579909,89.7873744 18.1826484,89.7873744 L1.9086758,89.7873744 C1.82077626,89.7873744 1.75799087,89.7375448 1.74543379,89.6628002 L1.33105023,87.8191023 C1.30593607,87.7568152 0.627853881,85.5518522 0.627853881,73.5802732 L0.627853881,36.5319113 L0.627853881,35.7221791 L5.29908676,33.5670457 C5.62557078,33.8909386 6.01484018,34.140087 6.4543379,34.3020334 C6.80593607,34.4266076 7.15753425,34.4888947 7.5216895,34.4888947 C7.97374429,34.4888947 8.42579909,34.3892353 8.85273973,34.2023741 L14.5410959,31.5614014 C15.7716895,30.9883602 16.4623288,29.7177035 16.336758,28.4470468 L19.4634703,27.0019863 Z" id="Stroke-6" stroke="url(#linearGradient-2)" stroke-width="2.08333333"></path>
                <rect id="Rectangle-4" fill="#8F8F8F" transform="translate(12.289062, 28.956308) rotate(-26.000000) translate(-12.289062, -28.956308) " x="10.4055005" y="27.7006003" width="3.76712329" height="2.51141553" rx="1.25570776"></rect>
                <path d="M1.88067352,2.5158105 C1.88067352,1.12950913 3.00578767,0.00439497717 4.39208904,0.00439497717 L9.41492009,0.00439497717 C10.8024772,0.00439497717 11.9263356,1.12950913 11.9263356,2.5158105 L1.88067352,2.5158105 Z" id="Stroke-8" stroke="url(#linearGradient-3)" stroke-width="2.08333333" stroke-linejoin="round"></path>
            </g>
        </g>
    </g>
</svg>